Encoder/dump.vcd
$date
	Thu Jun 05 15:21:59 2025
$end
$version
	Icarus Verilog
$end
$timescale
	1s
$end
$scope module nEncoderTB $end
$var wire 5 ! y [4:0] $end
$var parameter 32 " N $end
$var reg 1 # en $end
$var reg 32 $ x [31:0] $end
$upscope $end
$enddefinitions $end
$comment Show the parameter values. $end
$dumpall
b100000 "
$end
#0
$dumpvars
b10010010000101010011010100100100 $
0#
bx !
$end
#1
b1000000100010010101111010000001 $
#2
b100100001001101011000001001 $
#3
b110001111100000101011001100011 $
#4
b10000110101110010111101100001101 $
#5
b11000110110111111001100110001101 $
#6
b110010110000101000010001100101 $
#7
b1001001101110101001000010010 $
#8
b10000000111100111110001100000001 $
#9
b10000110110101111100110100001101 $
#10
b10111011001000111111000101110110 $
#11
b10011110100011011100110100111101 $
#12
b11110110110101000101011111101101 $
#13
b11000110001011011111011110001100 $
#14
b11111100111111011110100111111001 $
#15
b0 !
b1 $
1#
#16
b1 !
b10 $
#17
b10 !
b100 $
#18
b11 !
b1000 $
#19
b100 !
b10000 $
#20
b101 !
b100000 $
#21
b110 !
b1000000 $
#22
b111 !
b10000000 $
#23
b1000 !
b100000000 $
#24
b1001 !
b1000000000 $
#25
b1010 !
b10000000000 $
#26
b1011 !
b100000000000 $
#27
b1100 !
b1000000000000 $
#28
b1101 !
b10000000000000 $
#29
b1110 !
b100000000000000 $
#30
b1111 !
b1000000000000000 $
#31
b10000 !
b10000000000000000 $
#32
b10001 !
b100000000000000000 $
#33
b10010 !
b1000000000000000000 $
#34
b10011 !
b10000000000000000000 $
#35
b10100 !
b100000000000000000000 $
#36
b10101 !
b1000000000000000000000 $
#37
b10110 !
b10000000000000000000000 $
#38
b10111 !
b100000000000000000000000 $
#39
b11000 !
b1000000000000000000000000 $
#40
b11001 !
b10000000000000000000000000 $
#41
b11010 !
b100000000000000000000000000 $
#42
b11011 !
b1000000000000000000000000000 $
#43
b11100 !
b10000000000000000000000000000 $
#44
b11101 !
b100000000000000000000000000000 $
#45
b11110 !
b1000000000000000000000000000000 $
#46
b11111 !
b10000000000000000000000000000000 $
